{
  "AWSTemplateFormatVersion": "2010-09-09",
  "Description": "Lambda Function resource stack creation using Amplify CLI",
  "Parameters": {
    "CloudWatchRule": {
      "Type": "String",
      "Default": "NONE",
      "Description": " Schedule Expression"
    },
    "deploymentBucketName": {
      "Type": "String"
    },
    "env": {
      "Type": "String"
    },
    "s3Key": {
      "Type": "String"
    },
    "apiEAMS5TAPI01GraphQLAPIIdOutput": {
      "Type": "String",
      "Default": "apiEAMS5TAPI01GraphQLAPIIdOutput"
    },
    "secretsPathAmplifyAppId": {
      "Type": "String"
    }
  },
  "Conditions": {
    "ShouldNotCreateEnvResources": {
      "Fn::Equals": [
        {
          "Ref": "env"
        },
        "NONE"
      ]
    }
  },
  "Resources": {
    "LambdaFunction": {
      "Type": "AWS::Lambda::Function",
      "Metadata": {
        "aws:asset:path": "./src",
        "aws:asset:property": "Code"
      },
      "Properties": {
        "Code": {
          "S3Bucket": {
            "Ref": "deploymentBucketName"
          },
          "S3Key": {
            "Ref": "s3Key"
          }
        },
        "Handler": "index.handler",
        "FunctionName": {
          "Fn::If": [
            "ShouldNotCreateEnvResources",
            "sapOrderTrigger",
            {
              "Fn::Join": [
                "",
                [
                  "sapOrderTrigger",
                  "-",
                  {
                    "Ref": "env"
                  }
                ]
              ]
            }
          ]
        },
        "Environment": {
          "Variables": {
            "ENV": {
              "Ref": "env"
            },
            "REGION": {
              "Ref": "AWS::Region"
            },
            "API_EAMS5TAPI01_FARMERTABLE_NAME": {
              "Fn::ImportValue": {
                "Fn::Sub": "${apiEAMS5TAPI01GraphQLAPIIdOutput}:GetAtt:FarmerTable:Name"
              }
            },
            "API_EAMS5TAPI01_FARMERTABLE_ARN": {
              "Fn::Join": [
                "",
                [
                  "arn:aws:dynamodb:",
                  {
                    "Ref": "AWS::Region"
                  },
                  ":",
                  {
                    "Ref": "AWS::AccountId"
                  },
                  ":table/",
                  {
                    "Fn::ImportValue": {
                      "Fn::Sub": "${apiEAMS5TAPI01GraphQLAPIIdOutput}:GetAtt:FarmerTable:Name"
                    }
                  }
                ]
              ]
            },
            "API_EAMS5TAPI01_GRAPHQLAPIIDOUTPUT": {
              "Ref": "apiEAMS5TAPI01GraphQLAPIIdOutput"
            },
            "API_EAMS5TAPI01_SAPSTOCKTABLE_NAME": {
              "Fn::ImportValue": {
                "Fn::Sub": "${apiEAMS5TAPI01GraphQLAPIIdOutput}:GetAtt:SAPStockTable:Name"
              }
            },
            "API_EAMS5TAPI01_SAPSTOCKTABLE_ARN": {
              "Fn::Join": [
                "",
                [
                  "arn:aws:dynamodb:",
                  {
                    "Ref": "AWS::Region"
                  },
                  ":",
                  {
                    "Ref": "AWS::AccountId"
                  },
                  ":table/",
                  {
                    "Fn::ImportValue": {
                      "Fn::Sub": "${apiEAMS5TAPI01GraphQLAPIIdOutput}:GetAtt:SAPStockTable:Name"
                    }
                  }
                ]
              ]
            },
            "API_EAMS5TAPI01_PRODUCTTABLE_NAME": {
              "Fn::ImportValue": {
                "Fn::Sub": "${apiEAMS5TAPI01GraphQLAPIIdOutput}:GetAtt:ProductTable:Name"
              }
            },
            "API_EAMS5TAPI01_PRODUCTTABLE_ARN": {
              "Fn::Join": [
                "",
                [
                  "arn:aws:dynamodb:",
                  {
                    "Ref": "AWS::Region"
                  },
                  ":",
                  {
                    "Ref": "AWS::AccountId"
                  },
                  ":table/",
                  {
                    "Fn::ImportValue": {
                      "Fn::Sub": "${apiEAMS5TAPI01GraphQLAPIIdOutput}:GetAtt:ProductTable:Name"
                    }
                  }
                ]
              ]
            },
            "API_EAMS5TAPI01_PAYMENTTABLE_NAME": {
              "Fn::ImportValue": {
                "Fn::Sub": "${apiEAMS5TAPI01GraphQLAPIIdOutput}:GetAtt:PaymentTable:Name"
              }
            },
            "API_EAMS5TAPI01_PAYMENTTABLE_ARN": {
              "Fn::Join": [
                "",
                [
                  "arn:aws:dynamodb:",
                  {
                    "Ref": "AWS::Region"
                  },
                  ":",
                  {
                    "Ref": "AWS::AccountId"
                  },
                  ":table/",
                  {
                    "Fn::ImportValue": {
                      "Fn::Sub": "${apiEAMS5TAPI01GraphQLAPIIdOutput}:GetAtt:PaymentTable:Name"
                    }
                  }
                ]
              ]
            },
            "API_EAMS5TAPI01_ORDERTABLE_NAME": {
              "Fn::ImportValue": {
                "Fn::Sub": "${apiEAMS5TAPI01GraphQLAPIIdOutput}:GetAtt:OrderTable:Name"
              }
            },
            "API_EAMS5TAPI01_ORDERTABLE_ARN": {
              "Fn::Join": [
                "",
                [
                  "arn:aws:dynamodb:",
                  {
                    "Ref": "AWS::Region"
                  },
                  ":",
                  {
                    "Ref": "AWS::AccountId"
                  },
                  ":table/",
                  {
                    "Fn::ImportValue": {
                      "Fn::Sub": "${apiEAMS5TAPI01GraphQLAPIIdOutput}:GetAtt:OrderTable:Name"
                    }
                  }
                ]
              ]
            },
            "CPI_USERNAME": {
              "Fn::Join": [
                "",
                [
                  {
                    "Fn::Sub": [
                      "/amplify/${appId}/${env}/AMPLIFY_${functionName}_",
                      {
                        "appId": {
                          "Ref": "secretsPathAmplifyAppId"
                        },
                        "env": {
                          "Ref": "env"
                        },
                        "functionName": "sapOrderTrigger"
                      }
                    ]
                  },
                  "CPI_USERNAME"
                ]
              ]
            },
            "CPI_PASSWORD": {
              "Fn::Join": [
                "",
                [
                  {
                    "Fn::Sub": [
                      "/amplify/${appId}/${env}/AMPLIFY_${functionName}_",
                      {
                        "appId": {
                          "Ref": "secretsPathAmplifyAppId"
                        },
                        "env": {
                          "Ref": "env"
                        },
                        "functionName": "sapOrderTrigger"
                      }
                    ]
                  },
                  "CPI_PASSWORD"
                ]
              ]
            },
            "API_EAMS5TAPI01_GLOBALLOCKSTABLE_NAME": {
              "Fn::ImportValue": {
                "Fn::Sub": "${apiEAMS5TAPI01GraphQLAPIIdOutput}:GetAtt:GlobalLocksTable:Name"
              }
            },
            "API_EAMS5TAPI01_GLOBALLOCKSTABLE_ARN": {
              "Fn::Join": [
                "",
                [
                  "arn:aws:dynamodb:",
                  {
                    "Ref": "AWS::Region"
                  },
                  ":",
                  {
                    "Ref": "AWS::AccountId"
                  },
                  ":table/",
                  {
                    "Fn::ImportValue": {
                      "Fn::Sub": "${apiEAMS5TAPI01GraphQLAPIIdOutput}:GetAtt:GlobalLocksTable:Name"
                    }
                  }
                ]
              ]
            }
          }
        },
        "Role": {
          "Fn::GetAtt": [
            "LambdaExecutionRole",
            "Arn"
          ]
        },
        "Runtime": "nodejs14.x",
        "Layers": [],
        "Timeout": "900",
        "MemorySize": "2048"
      }
    },
    "LambdaExecutionRole": {
      "Type": "AWS::IAM::Role",
      "Properties": {
        "RoleName": {
          "Fn::If": [
            "ShouldNotCreateEnvResources",
            "advantaecommwebsiteLambdaRole0af62d80",
            {
              "Fn::Join": [
                "",
                [
                  "advantaecommwebsiteLambdaRole0af62d80",
                  "-",
                  {
                    "Ref": "env"
                  }
                ]
              ]
            }
          ]
        },
        "AssumeRolePolicyDocument": {
          "Version": "2012-10-17",
          "Statement": [
            {
              "Effect": "Allow",
              "Principal": {
                "Service": [
                  "lambda.amazonaws.com"
                ]
              },
              "Action": [
                "sts:AssumeRole"
              ]
            }
          ]
        }
      }
    },
    "lambdaexecutionpolicy": {
      "DependsOn": [
        "LambdaExecutionRole"
      ],
      "Type": "AWS::IAM::Policy",
      "Properties": {
        "PolicyName": "lambda-execution-policy",
        "Roles": [
          {
            "Ref": "LambdaExecutionRole"
          }
        ],
        "PolicyDocument": {
          "Version": "2012-10-17",
          "Statement": [
            {
              "Effect": "Allow",
              "Action": [
                "logs:CreateLogGroup",
                "logs:CreateLogStream",
                "logs:PutLogEvents"
              ],
              "Resource": {
                "Fn::Sub": [
                  "arn:aws:logs:${region}:${account}:log-group:/aws/lambda/${lambda}:log-stream:*",
                  {
                    "region": {
                      "Ref": "AWS::Region"
                    },
                    "account": {
                      "Ref": "AWS::AccountId"
                    },
                    "lambda": {
                      "Ref": "LambdaFunction"
                    }
                  }
                ]
              }
            }
          ]
        }
      }
    },
    "AmplifyResourcesPolicy": {
      "DependsOn": [
        "LambdaExecutionRole"
      ],
      "Type": "AWS::IAM::Policy",
      "Properties": {
        "PolicyName": "amplify-lambda-execution-policy",
        "Roles": [
          {
            "Ref": "LambdaExecutionRole"
          }
        ],
        "PolicyDocument": {
          "Version": "2012-10-17",
          "Statement": [
            {
              "Effect": "Allow",
              "Action": [
                "dynamodb:Get*",
                "dynamodb:BatchGetItem",
                "dynamodb:List*",
                "dynamodb:Describe*",
                "dynamodb:Scan",
                "dynamodb:Query"
              ],
              "Resource": [
                {
                  "Fn::Join": [
                    "",
                    [
                      "arn:aws:dynamodb:",
                      {
                        "Ref": "AWS::Region"
                      },
                      ":",
                      {
                        "Ref": "AWS::AccountId"
                      },
                      ":table/",
                      {
                        "Fn::ImportValue": {
                          "Fn::Sub": "${apiEAMS5TAPI01GraphQLAPIIdOutput}:GetAtt:GlobalLocksTable:Name"
                        }
                      }
                    ]
                  ]
                },
                {
                  "Fn::Join": [
                    "",
                    [
                      "arn:aws:dynamodb:",
                      {
                        "Ref": "AWS::Region"
                      },
                      ":",
                      {
                        "Ref": "AWS::AccountId"
                      },
                      ":table/",
                      {
                        "Fn::ImportValue": {
                          "Fn::Sub": "${apiEAMS5TAPI01GraphQLAPIIdOutput}:GetAtt:GlobalLocksTable:Name"
                        }
                      },
                      "/index/*"
                    ]
                  ]
                }
              ]
            },
            {
              "Effect": "Allow",
              "Action": [
                "dynamodb:Get*",
                "dynamodb:BatchGetItem",
                "dynamodb:List*",
                "dynamodb:Describe*",
                "dynamodb:Scan",
                "dynamodb:Query"
              ],
              "Resource": [
                {
                  "Fn::Join": [
                    "",
                    [
                      "arn:aws:dynamodb:",
                      {
                        "Ref": "AWS::Region"
                      },
                      ":",
                      {
                        "Ref": "AWS::AccountId"
                      },
                      ":table/",
                      {
                        "Fn::ImportValue": {
                          "Fn::Sub": "${apiEAMS5TAPI01GraphQLAPIIdOutput}:GetAtt:FarmerTable:Name"
                        }
                      }
                    ]
                  ]
                },
                {
                  "Fn::Join": [
                    "",
                    [
                      "arn:aws:dynamodb:",
                      {
                        "Ref": "AWS::Region"
                      },
                      ":",
                      {
                        "Ref": "AWS::AccountId"
                      },
                      ":table/",
                      {
                        "Fn::ImportValue": {
                          "Fn::Sub": "${apiEAMS5TAPI01GraphQLAPIIdOutput}:GetAtt:FarmerTable:Name"
                        }
                      },
                      "/index/*"
                    ]
                  ]
                }
              ]
            },
            {
              "Effect": "Allow",
              "Action": [
                "dynamodb:Get*",
                "dynamodb:BatchGetItem",
                "dynamodb:List*",
                "dynamodb:Describe*",
                "dynamodb:Scan",
                "dynamodb:Query"
              ],
              "Resource": [
                {
                  "Fn::Join": [
                    "",
                    [
                      "arn:aws:dynamodb:",
                      {
                        "Ref": "AWS::Region"
                      },
                      ":",
                      {
                        "Ref": "AWS::AccountId"
                      },
                      ":table/",
                      {
                        "Fn::ImportValue": {
                          "Fn::Sub": "${apiEAMS5TAPI01GraphQLAPIIdOutput}:GetAtt:SAPStockTable:Name"
                        }
                      }
                    ]
                  ]
                },
                {
                  "Fn::Join": [
                    "",
                    [
                      "arn:aws:dynamodb:",
                      {
                        "Ref": "AWS::Region"
                      },
                      ":",
                      {
                        "Ref": "AWS::AccountId"
                      },
                      ":table/",
                      {
                        "Fn::ImportValue": {
                          "Fn::Sub": "${apiEAMS5TAPI01GraphQLAPIIdOutput}:GetAtt:SAPStockTable:Name"
                        }
                      },
                      "/index/*"
                    ]
                  ]
                }
              ]
            },
            {
              "Effect": "Allow",
              "Action": [
                "dynamodb:Get*",
                "dynamodb:BatchGetItem",
                "dynamodb:List*",
                "dynamodb:Describe*",
                "dynamodb:Scan",
                "dynamodb:Query"
              ],
              "Resource": [
                {
                  "Fn::Join": [
                    "",
                    [
                      "arn:aws:dynamodb:",
                      {
                        "Ref": "AWS::Region"
                      },
                      ":",
                      {
                        "Ref": "AWS::AccountId"
                      },
                      ":table/",
                      {
                        "Fn::ImportValue": {
                          "Fn::Sub": "${apiEAMS5TAPI01GraphQLAPIIdOutput}:GetAtt:ProductTable:Name"
                        }
                      }
                    ]
                  ]
                },
                {
                  "Fn::Join": [
                    "",
                    [
                      "arn:aws:dynamodb:",
                      {
                        "Ref": "AWS::Region"
                      },
                      ":",
                      {
                        "Ref": "AWS::AccountId"
                      },
                      ":table/",
                      {
                        "Fn::ImportValue": {
                          "Fn::Sub": "${apiEAMS5TAPI01GraphQLAPIIdOutput}:GetAtt:ProductTable:Name"
                        }
                      },
                      "/index/*"
                    ]
                  ]
                }
              ]
            },
            {
              "Effect": "Allow",
              "Action": [
                "dynamodb:Get*",
                "dynamodb:BatchGetItem",
                "dynamodb:List*",
                "dynamodb:Describe*",
                "dynamodb:Scan",
                "dynamodb:Query"
              ],
              "Resource": [
                {
                  "Fn::Join": [
                    "",
                    [
                      "arn:aws:dynamodb:",
                      {
                        "Ref": "AWS::Region"
                      },
                      ":",
                      {
                        "Ref": "AWS::AccountId"
                      },
                      ":table/",
                      {
                        "Fn::ImportValue": {
                          "Fn::Sub": "${apiEAMS5TAPI01GraphQLAPIIdOutput}:GetAtt:PaymentTable:Name"
                        }
                      }
                    ]
                  ]
                },
                {
                  "Fn::Join": [
                    "",
                    [
                      "arn:aws:dynamodb:",
                      {
                        "Ref": "AWS::Region"
                      },
                      ":",
                      {
                        "Ref": "AWS::AccountId"
                      },
                      ":table/",
                      {
                        "Fn::ImportValue": {
                          "Fn::Sub": "${apiEAMS5TAPI01GraphQLAPIIdOutput}:GetAtt:PaymentTable:Name"
                        }
                      },
                      "/index/*"
                    ]
                  ]
                }
              ]
            },
            {
              "Effect": "Allow",
              "Action": [
                "dynamodb:Get*",
                "dynamodb:BatchGetItem",
                "dynamodb:List*",
                "dynamodb:Describe*",
                "dynamodb:Scan",
                "dynamodb:Query",
                "dynamodb:Update*",
                "dynamodb:RestoreTable*"
              ],
              "Resource": [
                {
                  "Fn::Join": [
                    "",
                    [
                      "arn:aws:dynamodb:",
                      {
                        "Ref": "AWS::Region"
                      },
                      ":",
                      {
                        "Ref": "AWS::AccountId"
                      },
                      ":table/",
                      {
                        "Fn::ImportValue": {
                          "Fn::Sub": "${apiEAMS5TAPI01GraphQLAPIIdOutput}:GetAtt:OrderTable:Name"
                        }
                      }
                    ]
                  ]
                },
                {
                  "Fn::Join": [
                    "",
                    [
                      "arn:aws:dynamodb:",
                      {
                        "Ref": "AWS::Region"
                      },
                      ":",
                      {
                        "Ref": "AWS::AccountId"
                      },
                      ":table/",
                      {
                        "Fn::ImportValue": {
                          "Fn::Sub": "${apiEAMS5TAPI01GraphQLAPIIdOutput}:GetAtt:OrderTable:Name"
                        }
                      },
                      "/index/*"
                    ]
                  ]
                }
              ]
            }
          ]
        }
      }
    },
    "CloudWatchEvent": {
      "Type": "AWS::Events::Rule",
      "Properties": {
        "Description": "Schedule rule for Lambda",
        "ScheduleExpression": {
          "Ref": "CloudWatchRule"
        },
        "State": "ENABLED",
        "Targets": [
          {
            "Arn": {
              "Fn::GetAtt": [
                "LambdaFunction",
                "Arn"
              ]
            },
            "Id": {
              "Ref": "LambdaFunction"
            }
          }
        ]
      }
    },
    "PermissionForEventsToInvokeLambda": {
      "Type": "AWS::Lambda::Permission",
      "Properties": {
        "FunctionName": {
          "Ref": "LambdaFunction"
        },
        "Action": "lambda:InvokeFunction",
        "Principal": "events.amazonaws.com",
        "SourceArn": {
          "Fn::GetAtt": [
            "CloudWatchEvent",
            "Arn"
          ]
        }
      }
    },
    "AmplifyFunctionSecretsPolicy": {
      "Type": "AWS::IAM::Policy",
      "Properties": {
        "PolicyName": "amplify-function-secrets-policy",
        "Roles": [
          {
            "Ref": "LambdaExecutionRole"
          }
        ],
        "PolicyDocument": {
          "Version": "2012-10-17",
          "Statement": [
            {
              "Effect": "Allow",
              "Action": [
                "ssm:GetParameter",
                "ssm:GetParameters"
              ],
              "Resource": {
                "Fn::Join": [
                  "",
                  [
                    "arn:aws:ssm:",
                    {
                      "Ref": "AWS::Region"
                    },
                    ":",
                    {
                      "Ref": "AWS::AccountId"
                    },
                    ":parameter",
                    {
                      "Fn::Sub": [
                        "/amplify/${appId}/${env}/AMPLIFY_${functionName}_",
                        {
                          "appId": {
                            "Ref": "secretsPathAmplifyAppId"
                          },
                          "env": {
                            "Ref": "env"
                          },
                          "functionName": "sapOrderTrigger"
                        }
                      ]
                    },
                    "*"
                  ]
                ]
              }
            }
          ]
        }
      },
      "DependsOn": [
        "LambdaExecutionRole"
      ]
    }
  },
  "Outputs": {
    "Name": {
      "Value": {
        "Ref": "LambdaFunction"
      }
    },
    "Arn": {
      "Value": {
        "Fn::GetAtt": [
          "LambdaFunction",
          "Arn"
        ]
      }
    },
    "Region": {
      "Value": {
        "Ref": "AWS::Region"
      }
    },
    "LambdaExecutionRole": {
      "Value": {
        "Ref": "LambdaExecutionRole"
      }
    },
    "CloudWatchEventRule": {
      "Value": {
        "Ref": "CloudWatchEvent"
      }
    }
  }
}