[
  {
    "Key": "user:Stack",
    "Value": "{project-env}"
  },
  {
    "Key": "user:Application",
    "Value": "{project-name}"
  },
  {
    "Key": "Cost Center",
    "Value": "A53125"
  },
  {
    "Key": "Department",
    "Value": "Advanta"
  },
  {
    "Key": "Business Owner Email ID",
    "Value":"gayathri.gandikota@advantaseeds.com rahul.pradhan@upl-ltd.com srinivas.murthy@upl-ltd.com"
  },
  {
    "Key": "Business Owner",
    "Value": "Gayathri Sirisha Gandikota"
  },
  {
    "Key": "Application Ower Email ID",
    "Value": "shriram.athreya@upl-ltd.com afrin.dange@upl-ltd.com sanmith.kurian@upl-ltd.com angela.ramesh@upl-ltd.com ayush.raghuwanshi@upl-ltd.com eshan.goel@upl-ltd.com"
  },
  {
    "Key":"Application Owner",
    "Value": "Shriram Athreya"
  },
  {
    "Key": "Partner",
    "Value": "Internal"
  },
  {
    "Key": "Environment Type",
    "Value": "Test"
  },
  {
    "Key": "PR",
    "Value": "REQ036121"
  },
  {
    "Key": "Project Name",
    "Value": "Advanta Ecommerce"
  }
]