{
  "features": {
    "graphqltransformer": {
      "addmissingownerfields": true,
      "improvepluralization": true,
      "validatetypenamereservedwords": true,
      "useexperimentalpipelinedtransformer": true,
      "enableiterativegsiupdates": true,
      "secondarykeyasgsi": true,
      "skipoverridemutationinputtypes": true,
      "securityEnhancementNotification": false,
      "showfieldauthnotification": false,
      "transformerversion": 2,
      "suppressschemamigrationprompt": true
    },
    "frontend-ios": {
      "enablexcodeintegration": true
    },
    "auth": {
      "enablecaseinsensitivity": true,
      "useinclusiveterminology": true,
      "breakcirculardependency": true
    },
    "codegen": {
      "useappsyncmodelgenplugin": true,
      "usedocsgeneratorplugin": true,
      "usetypesgeneratorplugin": true,
      "cleangeneratedmodelsdirectory": true,
      "retaincasestyle": true,
      "addtimestampfields": true,
      "handlelistnullabilitytransparently": true,
      "emitauthprovider": true,
      "generateindexrules": true,
      "enabledartnullsafety": true
    },
    "appsync": {
      "generategraphqlpermissions": true
    },
    "project": {
      "overrides": true
    }
  }
}