{
  "trigger": true,
  "modules": [
    "add-to-group"
  ],
  "parentResource": "EAMS5TCAT01",
  "functionName": "EAMS5TCAT01PostConfirmation",
  "resourceName": "EAMS5TCAT01PostConfirmation",
  "parentStack": "auth",
  "triggerEnvs": "[]",
  "triggerDir": "/usr/local/lib/node_modules/@aws-amplify/cli/node_modules/@aws-amplify/amplify-category-auth/provider-utils/awscloudformation/triggers/PostConfirmation",
  "triggerTemplate": "PostConfirmation.json.ejs",
  "triggerEventPath": "PostConfirmation.event.json",
  "roleName": "EAMS5TCAT01PostConfirmation",
  "skipEdit": true,
  "GROUP": "Farmer",
  "enableCors": false,
  "permissions": {},
  "environmentVariableList": [
    {
      "cloudFormationParameterName": "group",
      "environmentVariableName": "GROUP"
    },
    {
      "cloudFormationParameterName": "group",
      "environmentVariableName": "group"
    }
  ]
}