{
  "version": 1,
  "paths": {
    "/getAllPayments": {
      "permissions": {
        "setting": "protected",
        "groups": {
          "Admin": [
            "create"
          ]
        }
      },
      "lambdaFunction": "EAMS5TLDA04"
    },
    "/getAllComplaints": {
      "permissions": {
        "setting": "protected",
        "groups": {
          "Admin": [
            "create"
          ]
        }
      },
      "lambdaFunction": "EAMS5TLDA04"
    },
    "/getAllFaqs": {
      "permissions": {
        "setting": "protected",
        "groups": {
          "Admin": [
            "create"
          ]
        }
      },
      "lambdaFunction": "EAMS5TLDA04"
    },
    "/getAllReviews": {
      "permissions": {
        "setting": "protected",
        "groups": {
          "Admin": [
            "create"
          ]
        }
      },
      "lambdaFunction": "EAMS5TLDA04"
    },
    "/getAllPincodes": {
      "permissions": {
        "setting": "protected",
        "groups": {
          "Admin": [
            "create"
          ]
        }
      },
      "lambdaFunction": "EAMS5TLDA04"
    },
    "/getAllReferrer": {
      "permissions": {
        "setting": "protected",
        "groups": {
          "Admin": [
            "create"
          ]
        }
      },
      "lambdaFunction": "EAMS5TLDA04"
    },
    "/getAllReferee": {
      "permissions": {
        "setting": "protected",
        "groups": {
          "Admin": [
            "create"
          ]
        }
      },
      "lambdaFunction": "EAMS5TLDA04"
    },
    "/checkStockAvail": {
      "permissions": {
        "setting": "protected",
        "groups": {
          "Admin": [
            "create"
          ],
          "Farmer": [
            "create"
          ]
        }
      },
      "lambdaFunction": "EAMS5TLDA04"
    },
    "/getAllBanners": {
      "permissions": {
        "setting": "protected",
        "auth": [
          "create"
        ],
        "guest": [
          "create"
        ],
        "groups": {
          "Admin": [
            "create"
          ],
          "Farmer": [
            "create"
          ]
        }
      },
      "lambdaFunction": "EAMS5TLDA04"
    },
    "/putBannerImage": {
      "permissions": {
        "setting": "protected",
        "groups": {
          "Admin": [
            "create"
          ]
        }
      },
      "lambdaFunction": "EAMS5TLDA04"
    },
    "/incBannerClick": {
      "permissions": {
        "setting": "protected",
        "auth": [
          "create"
        ],
        "guest": [
          "create"
        ],
        "groups": {
          "Admin": [
            "create"
          ],
          "Farmer": [
            "create"
          ]
        }
      },
      "lambdaFunction": "EAMS5TLDA04"
    },
    "/countFarmerOrders": {
      "permissions": {
        "setting": "protected",
        "groups": {
          "Admin": [
            "create"
          ],
          "Farmer": [
            "create"
          ]
        }
      },
      "lambdaFunction": "EAMS5TLDA04"
    },
    "/getAllOrders": {
      "permissions": {
        "setting": "protected",
        "groups": {
          "Admin": [
            "create"
          ]
        }
      },
      "lambdaFunction": "EAMS5TLDA04"
    },
    "/getAllProducts": {
      "name": "/getAllProducts",
      "lambdaFunction": "EAMS5TLDA04",
      "permissions": {
        "setting": "protected",
        "auth": [
          "create"
        ],
        "guest": [
          "create"
        ],
        "groups": {
          "Admin": [
            "create"
          ],
          "Farmer": [
            "create"
          ]
        }
      }
    },
    "/plpFilterData": {
      "name": "/plpFilterData",
      "lambdaFunction": "EAMS5TLDA04",
      "permissions": {
        "setting": "protected",
        "auth": [
          "create"
        ],
        "guest": [
          "create"
        ],
        "groups": {
          "Admin": [
            "create"
          ],
          "Farmer": [
            "create"
          ]
        }
      }
    },
    "/addBanner": {
      "name": "/addBanner",
      "lambdaFunction": "EAMS5TLDA04",
      "permissions": {
        "groups": {
          "Admin": [
            "create"
          ]
        },
        "setting": "private"
      }
    },
    "/checkPincode": {
      "name": "/checkPincode",
      "lambdaFunction": "EAMS5TLDA04",
      "permissions": {
        "setting": "protected",
        "auth": [
          "create"
        ],
        "guest": [
          "create"
        ],
        "groups": {
          "Admin": [
            "create"
          ],
          "Farmer": [
            "create"
          ]
        }
      }
    }
  }
}